{
    "dev": {
        "django_settings": "sentimental_analysis_transformers.settings",
        "aws_region": "us-west-2",
        "profile_name": "default",
        "project_name": "apis",
        "runtime": "python3.8",
        "s3_bucket": "zappa-4g622s5zd"
    }
}